{ee910a15-b177-4b44-bb12-bee791b4d776} bank:/Master
{768c2ac1-c00c-0706-3d5b-34196047d1ee} bank:/Master.strings
{3d0db4c8-0dff-4b4f-8813-b10668325438} bus:/
{49d34a1f-0568-4008-b8ae-88cb358889e4} bus:/Reverb
{c5053880-15f6-426a-b16c-cb848364a4ad} event:/Monkey
{7dc90b35-fbe7-41d8-9070-55f51a945066} event:/Music
